{
    "KPlugin": {
        "Description": "Automatically mounts devices as needed",
        "Description[ar]": "يضمّ الأجهزة آليًّا عند الحاجة",
        "Description[az]": "Lazım olduqdacihazları avtomatik qoşur",
        "Description[be]": "Аўтаматычнае мантаванне прылад пры неабходнасці",
        "Description[bg]": "Автоматично монтира устройства",
        "Description[ca@valencia]": "Munta automàticament els dispositius quan es necessita",
        "Description[ca]": "Munta automàticament els dispositius quan es necessita",
        "Description[cs]": "Automaticky připojí zařízení dle potřeby",
        "Description[da]": "Monterer automatisk enheder efter behov",
        "Description[de]": "Hängt Geräte bei Bedarf automatisch ein",
        "Description[en_GB]": "Automatically mounts devices as needed",
        "Description[eo]": "Aŭtomate muntas aparatojn laŭbezone",
        "Description[es]": "Monta automáticamente dispositivos cuando es necesario",
        "Description[et]": "Seadmete automaatne ühendamine vajaduse korral",
        "Description[eu]": "Gailuak, behar ahala, automatikoki muntatzen ditu",
        "Description[fi]": "Liittää laitteet automaattisesti tarpeen mukaan",
        "Description[fr]": "Monte automatiquement les périphériques lorsque nécessaire",
        "Description[gl]": "Monta automaticamente os dispositivos cando sexa preciso.",
        "Description[he]": "מעגן את ההתקנים אוטומטית בהתאם לצורך",
        "Description[hu]": "Eszközök automatikus csatolása szükség szerint",
        "Description[ia]": "Il monta automaticamente le dispositivos como il necessita",
        "Description[id]": "Mengaitkan peranti secara otomatis ketika diperlukan",
        "Description[is]": "Tengir tæki sjálfvirkt eftir þörfum inn í skráakerfi",
        "Description[it]": "Monta automaticamente i dispositivi quando servono",
        "Description[ja]": "必要に応じてデバイスを自動的にマウントします",
        "Description[ka]": "მოწყობილობების საჭიროებისამებრ მიმაგრება",
        "Description[ko]": "필요할 때 자동으로 장치를 마운트",
        "Description[lt]": "Prireikus, automatiškai prijungia įrenginius",
        "Description[nl]": "Koppelt automatisch apparaten aan zoals nodig is",
        "Description[nn]": "Monter einingar automatisk når dei trengst",
        "Description[pa]": "ਲੋੜ ਮੁਤਾਬਕ ਡਿਵਾਈਸ ਆਪਣੇ-ਆਪ ਮਾਊਂਟ ਕਰੋ",
        "Description[pl]": "Podpina urządzenia, gdy są potrzebne",
        "Description[pt]": "Monta automaticamente os dispositivos, se necessário",
        "Description[pt_BR]": "Monta automaticamente os dispositivos quando necessário",
        "Description[ro]": "Montează automat dispozitivele după necesitate",
        "Description[ru]": "Автоматически подключает внешние носители информации",
        "Description[sk]": "Automaticky pripojí zariadenia podľa potreby",
        "Description[sl]": "Samodejno po potrebi priklopi naprave",
        "Description[sv]": "Monterar automatiskt enheter efter behov",
        "Description[ta]": "தேவைப்படும்போது சாதனங்களை தானாக ஏற்றும்",
        "Description[tr]": "Aygıtları gerektiğinde kendiliğinden bağlar",
        "Description[uk]": "Автоматичне монтування пристроїв за вимогою",
        "Description[vi]": "Tự động gắn kết thiết bị khi cần thiết",
        "Description[x-test]": "xxAutomatically mounts devices as neededxx",
        "Description[zh_CN]": "按需自动挂载设备",
        "Description[zh_TW]": "需要時自動掛載裝置",
        "Name": "Removable Device Automounter",
        "Name[ar]": "الضّامّ الآليّ للأجهزة القابلة للإزالة",
        "Name[az]": "Çıxarıla bilən daşıyıcıların avtomatik qoşulması",
        "Name[be]": "Аўтаматычнае мантаванне рухомых носьбітаў",
        "Name[bg]": "Програма за автоматично монтиране на сменяеми устройства",
        "Name[ca@valencia]": "Muntador automàtic de dispositius extraïbles",
        "Name[ca]": "Muntador automàtic de dispositius extraïbles",
        "Name[cs]": "Automatické připojování odpojitelných zařízení",
        "Name[da]": "Automontering af flytbare enheder",
        "Name[de]": "Automatisches Einhängen von Wechselmedien",
        "Name[el]": "Αυτόματη προσάρτηση αφαιρούμενων συσκευών",
        "Name[en_GB]": "Removable Device Automounter",
        "Name[eo]": "Aŭtomuntilo por Demeteblaj Aparatoj",
        "Name[es]": "Montador automático de dispositivos extraíbles",
        "Name[et]": "Eemaldatavate seadmete automaatne ühendaja",
        "Name[eu]": "Gailu aldagarrien automuntatzailea",
        "Name[fi]": "Irrotettavan laitteen automaattiasentaja",
        "Name[fr]": "Monteur automatique de périphériques",
        "Name[gl]": "Montador automático de dispositivos extraíbeis",
        "Name[he]": "מעגן התקנים נתיקים אוטומטית",
        "Name[hu]": "Automatikus csatoló eltávolítható-eszközökhöz",
        "Name[ia]": "Removable Device Automounter (Montator automatic de Dispositivo Removibile)",
        "Name[id]": "Removable Device Automounter",
        "Name[is]": "Sjálfvirk tenging fjarlægjanlegra tækja",
        "Name[it]": "Montaggio automatico dei dispositivi rimovibili",
        "Name[ja]": "リムーバブルデバイス自動マウンタ",
        "Name[ka]": "მოხსნადი მოწყობილობების თვითმიმმაგრებელი",
        "Name[ko]": "이동식 장치 자동 마운터",
        "Name[lt]": "Automatinis keičiamųjų įrenginių prijungimas",
        "Name[nl]": "Automatische aankoppelaar voor verwijderbare apparaten",
        "Name[nn]": "Automontering av flyttbare einingar",
        "Name[pa]": "ਹਟਾਉਣਯੋਗ ਡਿਵਾਈਸ ਆਟੋ-ਮਾਊਂਟਰ",
        "Name[pl]": "Samopodpinanie urządzeń wymiennych",
        "Name[pt]": "Auto-Montagem de Dispositivos Removíveis",
        "Name[pt_BR]": "Montagem automática de dispositivos removíveis",
        "Name[ro]": "Automontare dispozitive amovibile",
        "Name[ru]": "Автоматическое монтирование внешних носителей",
        "Name[sk]": "Automatické pripájanie vymeniteľných zariadení",
        "Name[sl]": "Samodejno priklapljanje odstranljivih naprav",
        "Name[sr@ijekavian]": "Аутоматско монтирање уклоњивих уређаја",
        "Name[sr@ijekavianlatin]": "Automatsko montiranje uklonjivih uređaja",
        "Name[sr@latin]": "Automatsko montiranje uklonjivih uređaja",
        "Name[sr]": "Аутоматско монтирање уклоњивих уређаја",
        "Name[sv]": "Automatisk montering av flyttbara enheter",
        "Name[ta]": "கழற்றக்கூடிய சாதனங்களை தானாக ஏற்றுவது",
        "Name[tr]": "Çıkarılabilir Aygıt Otomatik Bağlayıcı",
        "Name[uk]": "Автоматичне монтування портативних пристроїв",
        "Name[vi]": "Trình gắn kết tự động thiết bị gắn ngoài",
        "Name[x-test]": "xxRemovable Device Automounterxx",
        "Name[zh_CN]": "可移动设备自动挂载程序",
        "Name[zh_TW]": "可移除裝置自動掛載器"
    },
    "X-KDE-Kded-autoload": true,
    "X-KDE-Kded-load-on-demand": false,
    "X-KDE-Kded-phase": 1
}
