{
    "KPlugin": {
        "BugReportUrl": "https://bugs.kde.org/enter_bug.cgi?product=systemsettings&component=kcm_touchscreen",
        "FormFactors": [
            "tablet",
            "handset",
            "desktop"
        ],
        "Icon": "preferences-desktop-touchscreen",
        "License": "GPL",
        "Name": "Touchscreen",
        "Name[ar]": "شاشة لمس",
        "Name[ast]": "Pantalla táctil",
        "Name[az]": "Toxunma ekranı",
        "Name[be]": "Сэнсарны экран",
        "Name[bg]": "Сензорен екран",
        "Name[ca@valencia]": "Pantalla tàctil",
        "Name[ca]": "Pantalla tàctil",
        "Name[cs]": "Dotyková obrazovka",
        "Name[de]": "Touchscreen",
        "Name[en_GB]": "Touchscreen",
        "Name[eo]": "Tuŝekrano",
        "Name[es]": "Pantalla táctil",
        "Name[eu]": "Ukimen-pantaila",
        "Name[fi]": "Kosketusnäyttö",
        "Name[fr]": "Écran tactile",
        "Name[gl]": "Pantalla táctil",
        "Name[he]": "מסך מגע",
        "Name[hu]": "Érintőképernyő",
        "Name[ia]": "Schermo tactile",
        "Name[is]": "Snertiskjár",
        "Name[it]": "Schermo tattile",
        "Name[ja]": "タッチスクリーン",
        "Name[ka]": "სენსორული ეკრანი",
        "Name[ko]": "터치스크린",
        "Name[lt]": "Jutiklinis ekranas",
        "Name[nl]": "Aanraakscherm",
        "Name[nn]": "Trykkskjerm",
        "Name[pa]": "ਟੱਚ-ਸਕਰੀਨ",
        "Name[pl]": "Ekran dotykowy",
        "Name[pt]": "Ecrã Táctil",
        "Name[pt_BR]": "Tela de toque",
        "Name[ru]": "Сенсорный экран",
        "Name[sk]": "Dotyková obrazovka",
        "Name[sl]": "Zaslon na dotik",
        "Name[ta]": "தொடுதிரை",
        "Name[tr]": "Dokunmatik Ekran",
        "Name[uk]": "Сенсорний екран",
        "Name[vi]": "Màn hình cảm ứng",
        "Name[x-test]": "xxTouchscreenxx",
        "Name[zh_CN]": "触摸屏",
        "Name[zh_TW]": "觸控螢幕"
    },
    "X-KDE-Keywords": "touchscreen,touch,laptop,screen,display",
    "X-KDE-OnlyShowOnQtPlatforms": [
        "wayland"
    ],
    "X-KDE-System-Settings-Parent-Category": "hardware-input-touchscreen",
    "X-KDE-Weight": 10
}
